<?xml version="1.0" encoding="UTF-8" standalone="no"?>
<svg
   xmlns:dc="http://purl.org/dc/elements/1.1/"
   xmlns:cc="http://creativecommons.org/ns#"
   xmlns:rdf="http://www.w3.org/1999/02/22-rdf-syntax-ns#"
   xmlns:svg="http://www.w3.org/2000/svg"
   xmlns="http://www.w3.org/2000/svg"
   xmlns:sodipodi="http://sodipodi.sourceforge.net/DTD/sodipodi-0.dtd"
   xmlns:inkscape="http://www.inkscape.org/namespaces/inkscape"
   width="128"
   height="128"
   style="enable-background:new 0 0 128 128;"
   version="1.1"
   id="svg16"
   sodipodi:docname="notification_icon.svg"
   inkscape:version="0.92.1 r15371">
  <metadata
     id="metadata22">
    <rdf:RDF>
      <cc:Work
         rdf:about="">
        <dc:format>image/svg+xml</dc:format>
        <dc:type
           rdf:resource="http://purl.org/dc/dcmitype/StillImage" />
      </cc:Work>
    </rdf:RDF>
  </metadata>
  <defs
     id="defs20" />
  <sodipodi:namedview
     pagecolor="#ffffff"
     bordercolor="#666666"
     borderopacity="1"
     objecttolerance="10"
     gridtolerance="10"
     guidetolerance="10"
     inkscape:pageopacity="0"
     inkscape:pageshadow="2"
     inkscape:window-width="1366"
     inkscape:window-height="719"
     id="namedview18"
     showgrid="false"
     inkscape:zoom="2.6074563"
     inkscape:cx="101.68874"
     inkscape:cy="51.145965"
     inkscape:window-x="0"
     inkscape:window-y="25"
     inkscape:window-maximized="1"
     inkscape:current-layer="g4524"
     inkscape:snap-page="true"
     inkscape:snap-global="false" />
  <g
     id="g6" />
  <g
     inkscape:groupmode="layer"
     id="layer1"
     inkscape:label="original"
     style="display:none"
     sodipodi:insensitive="true">
    <path
       inkscape:connector-curvature="0"
       d="M 62.403922,7.8296118 8.439676,7.7756348 c -5.936067,0 -10.792849,4.8567822 -10.792849,10.7928462 v 97.135659 c 0,5.93606 4.856782,10.79284 10.792849,10.79284 h 53.964246 c 5.936063,0 10.792845,-4.85678 10.792845,-10.79284 V 18.568494 c 0,-5.936064 -4.856782,-10.7388822 -10.792845,-10.7388822 z m 0,97.0816782 H 8.439676 V 29.361343 h 53.964246 z"
       id="path4490-5"
       style="fill:#000000;stroke-width:5.39642477" />
    <path
       sodipodi:type="inkscape:offset"
       inkscape:radius="9.7757483"
       inkscape:original="M 65.75 6.5078125 C 65.190324 6.4481016 64.660205 6.4592623 64.162109 6.5253906 C 62.169633 6.7899164 60.77062 7.910986 59.939453 8.7207031 C 57.931758 10.66919 57.36763 12.777642 57.560547 14.558594 C 57.753463 16.339545 58.624182 17.774934 59.28125 18.677734 A 0.78677838 0.78677838 0 0 0 59.283203 18.679688 C 59.519871 19.002416 59.869287 19.335567 60.494141 19.960938 C 61.118994 20.586308 61.956163 21.40916 62.9375 22.361328 C 64.900174 24.265664 67.432032 26.688402 69.935547 29.074219 C 74.942577 33.845852 79.839844 38.466797 79.839844 38.466797 A 0.78677838 0.78677838 0 0 0 79.851562 38.478516 C 79.851562 38.478516 80.043308 38.667853 80.142578 38.898438 C 80.241848 39.129021 80.32203 39.226662 80.003906 39.566406 A 0.78677838 0.78677838 0 0 0 80.001953 39.566406 C 79.697816 39.892492 79.577567 39.839328 79.375 39.787109 C 79.174649 39.735462 79.022933 39.617841 79.019531 39.615234 L 48.869141 11.091797 L 48.888672 11.113281 C 45.26251 7.421979 39.957912 7.9089136 36.96875 11.173828 C 35.326109 12.965299 34.861583 15.104177 35.277344 17.105469 C 35.693104 19.10676 36.916203 20.979638 38.527344 22.564453 C 39.947438 23.963148 64.385178 47.415286 66.951172 49.818359 C 67.401984 50.239118 67.329344 50.365881 67.302734 50.476562 C 67.276124 50.587246 67.186641 50.6825 67.181641 50.6875 A 0.78677838 0.78677838 0 0 0 67.158203 50.712891 C 66.90339 50.990282 66.85572 50.95825 66.703125 50.927734 C 66.55084 50.89728 66.274636 50.735964 66.013672 50.496094 L 66.011719 50.496094 C 61.327127 46.161086 53.257473 38.56797 46.220703 31.933594 C 39.183563 25.298869 33.246426 19.683512 32.607422 19.101562 A 0.78677838 0.78677838 0 0 0 32.605469 19.099609 C 28.823657 15.681022 23.755075 15.558533 20.707031 18.804688 C 17.537563 22.176462 18.408784 27.735027 22.09375 31.130859 C 22.772969 31.760269 31.239887 39.863338 39.457031 47.734375 C 47.659049 55.590922 55.644345 63.245175 55.673828 63.273438 C 55.921985 63.544989 55.961134 63.734448 55.955078 63.859375 C 55.948958 63.985642 55.891944 64.091728 55.775391 64.1875 C 55.542283 64.379043 55.120157 64.500865 54.611328 64.015625 A 0.78677838 0.78677838 0 0 0 54.609375 64.011719 C 54.609375 64.011719 48.070966 57.825537 41.396484 51.53125 C 38.059244 48.384107 34.688151 45.210513 32.082031 42.769531 C 30.778971 41.54904 29.667259 40.510125 28.845703 39.75 C 28.024147 38.989875 27.57726 38.569745 27.3125 38.363281 A 0.78677838 0.78677838 0 0 0 27.310547 38.363281 C 25.179897 36.704342 23.028846 36.047709 21.064453 36.320312 C 19.100061 36.592917 17.397243 37.781383 16.113281 39.529297 C 14.80167 41.314741 14.590253 43.440508 15.123047 45.460938 C 15.655982 47.481904 16.890728 49.438718 18.492188 51.160156 A 0.78677838 0.78677838 0 0 0 18.492188 51.162109 C 18.940721 51.64289 20.753663 53.43238 23.388672 56.027344 C 26.023681 58.622308 29.437363 61.973551 32.931641 65.408203 C 39.920195 72.277506 47.256467 79.505902 49.300781 81.638672 A 0.78677838 0.78677838 0 0 0 49.330078 81.666016 C 49.330078 81.666016 59.672541 91.428196 63.308594 95.890625 C 63.478031 96.098505 63.511894 96.27004 63.488281 96.478516 C 63.464669 96.686991 63.353131 96.932763 63.167969 97.140625 C 62.797645 97.556348 62.24804 97.760288 61.748047 97.529297 A 0.78677838 0.78677838 0 0 0 61.6875 97.505859 L 46.369141 91.916016 A 0.78677838 0.78677838 0 0 0 46.335938 91.904297 C 39.166894 89.642573 32.238131 91.673112 27.630859 98.085938 C 25.815122 100.6091 26.818075 104.17722 29.703125 105.13086 L 29.667969 105.11914 C 29.667969 105.11914 43.190835 110.3085 56.324219 115.14648 A 0.78677838 0.78677838 0 0 0 56.380859 115.16992 C 56.380859 115.16992 57.077246 115.4314 58.609375 115.99219 C 62.221055 117.31279 65.73213 118.58378 68.867188 119.68555 C 69.961634 120.07009 71.17935 120.50597 72.455078 120.96094 C 72.477534 120.97151 72.830273 121.1377 73.53125 121.45898 C 74.296715 121.82003 75.423138 122.26124 76.921875 122.67188 A 0.78677838 0.78677838 0 0 0 76.945312 122.67969 C 78.402819 123.02908 80.298056 123.47616 82.529297 123.5 C 84.730002 123.59225 87.242582 123.42816 89.900391 122.83398 L 89.910156 122.83203 C 92.569342 122.26872 95.373551 121.34053 98.166016 120.01562 C 100.95185 118.69388 103.74207 117.04073 106.43945 115.09375 A 0.78677838 0.78677838 0 0 0 106.44141 115.0918 C 109.12322 113.13863 111.74408 110.92035 114.19531 108.45898 C 115.41586 107.2384 116.6221 105.96299 117.77148 104.58984 A 0.78677838 0.78677838 0 0 0 117.77539 104.58398 L 119.36523 102.66016 L 119.37695 102.64453 C 119.97662 101.95038 120.52112 101.22303 121.05469 100.52148 A 0.78677838 0.78677838 0 0 0 121.0625 100.50977 C 123.20677 97.572831 125.07642 94.331161 126.36719 90.837891 A 0.78677838 0.78677838 0 0 0 126.36719 90.835938 C 127.64658 87.345751 128.33481 83.648491 128.29492 80.064453 L 128.29492 80.060547 C 128.29439 76.478813 127.58474 73.096776 126.5625 70.111328 L 126.5625 70.109375 C 125.53312 67.09397 124.07053 64.529791 122.71289 62.287109 L 122.71289 62.285156 C 117.72154 54.035329 104.79297 40.794922 104.79297 40.794922 A 0.78677838 0.78677838 0 0 0 104.79102 40.794922 C 104.31859 40.310976 102.15898 38.240513 99.064453 35.289062 C 95.969931 32.337613 91.986016 28.551062 88.015625 24.785156 C 84.045234 21.01925 80.088522 17.27551 77.048828 14.410156 C 75.528981 12.97748 74.238293 11.763657 73.289062 10.876953 C 72.339832 9.9902489 71.793078 9.47885 71.548828 9.2773438 C 69.377496 7.4926335 67.429027 6.6869453 65.75 6.5078125 z "
       style="fill:#ffffff"
       id="path2-6"
       d="m 66.787109,-3.2128906 c -1.334948,-0.1424235 -2.659225,-0.1194606 -3.912109,0.046875 -4.968189,0.6595885 -8.22215,3.38938015 -9.751953,4.8789062 -0.05741,0.055789 -0.0919,0.1290031 -0.148438,0.1855469 -7.311155,-4.7920802 -17.462838,-3.6039142 -23.210937,2.6679687 -6.19e-4,6.746e-4 -0.0013,0.00128 -0.002,0.00195 -0.697251,0.7607005 -1.237251,1.6344725 -1.769531,2.5078125 -5.21172,-0.5121211 -10.586612,0.966044 -14.408204,5.0332031 -6.5e-4,6.92e-4 -0.0013,0.0013 -0.002,0.002 -6.45e-4,6.87e-4 -0.0013,0.0013 -0.002,0.002 -5.1785926,5.512598 -5.5683446,12.866636 -3.007812,19.03125 -0.8762232,0.820265 -1.6713553,1.690272 -2.337891,2.597657 -3.206717,4.365176 -3.6909186,9.939221 -2.5644531,14.210937 0.9090417,3.447217 2.6477185,6.114231 4.5820311,8.447266 a 9.7767258,9.7767258 0 0 0 1.082031,1.417968 9.7767258,9.7767258 0 0 0 0.0098,0.01172 c 1.157894,1.241143 2.54687,2.563534 5.185547,5.16211 2.644456,2.604267 6.057383,5.956804 9.548828,9.388671 4.215466,4.143535 6.555184,6.489728 9.759766,9.671875 -6.300609,1.334355 -12.192348,4.826346 -16.146485,10.330078 -4.882975,6.79481 -2.62999,16.919898 4.716797,20.960938 a 9.7767258,9.7767258 0 0 0 1.757813,0.90234 c 0,0 13.560671,5.20484 26.779296,10.07422 0.01719,0.006 0.03356,0.0151 0.05078,0.0215 0.03249,0.0122 0.733017,0.2734 2.253906,0.83008 a 9.7767258,9.7767258 0 0 0 0.002,0.002 c 3.63085,1.32761 7.173271,2.60986 10.373047,3.73437 a 9.7767258,9.7767258 0 0 0 0.002,0 c 0.92757,0.32591 2.007564,0.71079 3.119141,1.10742 0.16786,0.0783 0.255034,0.11963 0.615234,0.28516 4.63e-4,2.2e-4 0.0015,-2.2e-4 0.002,0 1.318547,0.62182 2.936189,1.23163 4.921875,1.7793 a 9.7767258,9.7767258 0 0 0 0.38086,0.10547 c 1.466879,0.35163 4.221417,1.02385 7.632812,1.07812 2.939861,0.10975 6.210138,-0.10943 9.689453,-0.88281 3.408757,-0.72642 6.900688,-1.88865 10.367189,-3.5332 3.354,-1.59131 6.64253,-3.54567 9.80469,-5.82813 a 9.7767258,9.7767258 0 0 0 0.10937,-0.0879 9.7767258,9.7767258 0 0 0 1.05274,-0.89648 c 0.009,-0.009 0.0166,-0.0166 0.0254,-0.0254 2.66312,-2.02002 5.29741,-4.16855 7.76757,-6.64844 1.34857,-1.3489 2.75741,-2.82958 4.15235,-4.4961 a 9.7767258,9.7767258 0 0 0 0.043,-0.0547 l 1.58984,-1.92383 a 9.7767258,9.7767258 0 0 0 0.28516,-0.36133 l -0.41016,0.50977 c 0.89438,-1.03529 1.55795,-1.93488 2.06055,-2.59571 a 9.7767258,9.7767258 0 0 0 0.13867,-0.1914 c 2.56159,-3.51221 4.89333,-7.504146 6.5625,-12.021488 a 9.7767258,9.7767258 0 0 0 0.008,-0.02539 9.7767258,9.7767258 0 0 0 0.40039,-1.464844 c 1.33724,-4.082894 2.1635,-8.352373 2.1211,-12.728516 -0.007,-4.330157 -0.82193,-8.236745 -1.91016,-11.74414 a 9.7767258,9.7767258 0 0 0 -0.3418,-1.3125 c -1.32699,-3.88722 -3.07774,-6.940681 -4.5,-9.304688 a 9.7767258,9.7767258 0 0 0 -0.23828,-0.421875 C 124.6131,46.54228 111.78884,33.968495 111.78711,33.966797 c 0,0 0,-0.002 0,-0.002 a 9.7767258,9.7767258 0 0 0 -0.0547,-0.05078 c -1.13955,-1.164611 -2.84723,-2.766727 -5.92187,-5.699218 C 102.70551,25.25337 98.71748,21.463914 94.742188,17.693359 90.766034,13.921988 86.805135,10.173102 83.753906,7.296875 82.229371,5.8597799 80.933969,4.6395342 79.962891,3.7324219 79.015428,2.8473688 78.752586,2.5473479 77.769531,1.7363281 a 9.7767258,9.7767258 0 0 0 -0.01367,-0.011719 c -3.272637,-2.6899198 -7.00838,-4.5149743 -10.96875,-4.9375 z m 4.753907,45.4921876 c 0.574335,0.353761 0.718785,0.680261 1.08789,1.019531 a 9.7767258,9.7767258 0 0 0 -0.01172,-0.0098 C 72.36467,43.055366 71.813377,42.53208 71.541016,42.279297 Z m 0.871093,2.615234 c 0.03931,0.03711 0.561963,0.533136 0.570313,0.541016 0,0 -0.226756,-0.136028 -0.570313,-0.541016 z m 56.832031,60.966799 -0.22266,0.31836 a 9.7767258,9.7767258 0 0 0 0.11719,-0.16211 c 0.0354,-0.0521 0.071,-0.10354 0.10547,-0.15625 z m -55.558593,26.03515 c 0.173428,0.0599 0.704106,0.20684 0.525391,0.16407 z m 18.269531,0.49414 -0.130859,0.0273 a 9.7767258,9.7767258 0 0 0 0.111328,-0.0215 c 0.0065,-0.001 0.01304,-0.004 0.01953,-0.006 z"
       transform="matrix(0.98776332,0,0,0.98776332,-2.4750745,-1.1365475)" />
    <path
       d="m 8.6062946,62.351208 c 0,0 0.869232,5.738905 6.5587484,11.053072 5.699395,5.314167 13.01872,7.773697 13.01872,7.773697"
       style="fill:none;stroke:#444444;stroke-width:3.95105338;stroke-linecap:round;stroke-miterlimit:10"
       id="path8"
       inkscape:connector-curvature="0" />
    <path
       sodipodi:type="inkscape:offset"
       inkscape:radius="0.78669971"
       inkscape:original="M 64.265625 7.3046875 C 62.514375 7.5371875 61.263281 8.5301563 60.488281 9.2851562 C 56.758281 12.905156 58.687969 16.524844 59.917969 18.214844 C 60.797969 19.414844 80.378906 37.894531 80.378906 37.894531 C 80.378906 37.894531 81.608125 39.003516 80.578125 40.103516 C 79.608125 41.143516 78.507812 40.214844 78.507812 40.214844 L 48.328125 11.664062 C 44.988125 8.2640625 40.258828 8.7450781 37.548828 11.705078 C 34.568828 14.955078 36.018125 18.993906 39.078125 22.003906 C 40.408125 23.313906 64.968281 46.884141 67.488281 49.244141 C 68.688281 50.364141 67.748281 51.234141 67.738281 51.244141 C 66.948281 52.104141 66.108516 51.654219 65.478516 51.074219 C 56.098516 42.394219 33.198125 20.703594 32.078125 19.683594 C 28.538126 16.483594 24.029297 16.41375 21.279297 19.34375 C 18.459297 22.34375 19.208906 27.404692 22.628906 30.554688 C 24.128906 31.944687 56.248047 62.734375 56.248047 62.734375 C 57.718047 64.324375 55.578359 66.023984 54.068359 64.583984 C 54.068359 64.583984 27.918125 39.834375 26.828125 38.984375 C 22.808125 35.854375 19.128047 36.754141 16.748047 39.994141 C 14.418047 43.164141 15.998359 47.325 19.068359 50.625 C 20.598359 52.265 45.709141 76.75375 49.869141 81.09375 C 49.869141 81.09375 60.177969 90.804531 63.917969 95.394531 C 65.107969 96.854531 63.127969 99.034141 61.417969 98.244141 L 46.099609 92.654297 C 39.189609 90.474297 32.70953 92.364922 28.269531 98.544922 C 26.729531 100.68492 27.55922 103.59477 29.949219 104.38477 C 29.949219 104.38477 43.519453 109.59336 56.689453 114.44336 L 56.658203 114.43359 C 56.658203 114.43359 57.348906 114.6939 58.878906 115.25391 C 62.488906 116.5739 65.998906 117.84337 69.128906 118.94336 C 70.238906 119.33337 71.467812 119.77438 72.757812 120.23438 C 72.757812 120.23438 73.139375 120.41414 73.859375 120.74414 C 74.579375 121.08414 75.668906 121.51405 77.128906 121.91406 C 78.588906 122.26405 80.418594 122.69484 82.558594 122.71484 C 84.698594 122.80484 87.148281 122.64445 89.738281 122.06445 C 92.338281 121.51445 95.088125 120.60469 97.828125 119.30469 C 100.56813 118.00468 103.31852 116.37508 105.97852 114.45508 C 108.62852 112.52508 111.21867 110.33431 113.63867 107.9043 C 114.84867 106.6943 116.03797 105.43397 117.16797 104.08398 L 118.76953 102.14453 C 119.34953 101.47453 119.88773 100.75492 120.42773 100.04492 C 122.53773 97.154922 124.36891 93.974453 125.62891 90.564453 C 126.87891 87.154453 127.54781 83.544453 127.50781 80.064453 C 127.50781 76.584453 126.81836 73.285234 125.81836 70.365234 C 124.81836 67.435234 123.38906 64.923359 122.03906 62.693359 C 117.16906 54.643359 104.22852 41.34375 104.22852 41.34375 C 102.58852 39.66375 72.248828 10.874766 71.048828 9.8847656 C 68.268828 7.5997656 66.016875 7.0721875 64.265625 7.3046875 z "
       style="fill:#fac036"
       id="path2"
       d="m 65.75,6.5078125 c -0.559676,-0.059711 -1.089795,-0.04855 -1.587891,0.017578 -1.992476,0.2645258 -3.391489,1.3855954 -4.222656,2.1953125 -2.007695,1.9484869 -2.571823,4.0569389 -2.378906,5.8378909 0.192916,1.780951 1.063635,3.21634 1.720703,4.11914 a 0.78677838,0.78677838 0 0 0 0.002,0.002 c 0.236668,0.322728 0.586084,0.655879 1.210938,1.28125 0.624853,0.62537 1.462022,1.448222 2.443359,2.40039 1.962674,1.904336 4.494532,4.327074 6.998047,6.712891 5.00703,4.771633 9.904297,9.392578 9.904297,9.392578 a 0.78677838,0.78677838 0 0 0 0.01172,0.01172 c 0,0 0.191746,0.189338 0.291016,0.419922 0.09927,0.230583 0.179452,0.328224 -0.138672,0.667968 a 0.78677838,0.78677838 0 0 0 -0.002,0 c -0.304137,0.326086 -0.424386,0.272922 -0.626953,0.220703 -0.200351,-0.05165 -0.352067,-0.169268 -0.355469,-0.171875 l -30.15039,-28.523437 0.01953,0.02148 c -3.626162,-3.6913022 -8.93076,-3.2043675 -11.919922,0.06055 -1.642641,1.791471 -2.107167,3.930349 -1.691406,5.931641 0.41576,2.001291 1.638859,3.874169 3.25,5.458984 1.420094,1.398695 25.857834,24.850833 28.423828,27.253906 0.450812,0.420759 0.378172,0.547521 0.351562,0.658203 -0.02661,0.110683 -0.116093,0.205938 -0.121093,0.210938 a 0.78677838,0.78677838 0 0 0 -0.02344,0.02539 c -0.254813,0.277391 -0.302483,0.245359 -0.455078,0.214843 -0.152285,-0.03045 -0.428489,-0.19177 -0.689453,-0.43164 h -0.002 C 61.327127,46.161086 53.257473,38.56797 46.220703,31.933594 39.183563,25.298869 33.246426,19.683512 32.607422,19.101562 a 0.78677838,0.78677838 0 0 0 -0.002,-0.002 c -3.781812,-3.418587 -8.850394,-3.541076 -11.898438,-0.294921 -3.169468,3.371774 -2.298247,8.930339 1.386719,12.326171 0.679219,0.62941 9.146137,8.732479 17.363281,16.603516 8.202018,7.856547 16.187314,15.5108 16.216797,15.539063 0.248157,0.271552 0.287306,0.46101 0.28125,0.585937 -0.0061,0.126267 -0.06313,0.232353 -0.179687,0.328125 -0.233108,0.191543 -0.655234,0.313365 -1.164063,-0.171875 a 0.78677838,0.78677838 0 0 0 -0.002,-0.0039 c 0,0 -6.538409,-6.186182 -13.212891,-12.480469 -3.33724,-3.147143 -6.708333,-6.320737 -9.314453,-8.761719 C 30.778971,41.54904 29.667259,40.510125 28.845703,39.75 28.024147,38.989875 27.57726,38.569745 27.3125,38.363281 a 0.78677838,0.78677838 0 0 0 -0.002,0 c -2.13065,-1.658939 -4.281701,-2.315572 -6.246094,-2.042969 -1.964392,0.272604 -3.66721,1.461071 -4.951172,3.208985 -1.311611,1.785444 -1.523028,3.911212 -0.990234,5.931641 0.532935,2.020966 1.767681,3.97778 3.369141,5.699218 a 0.78677838,0.78677838 0 0 0 0,0.002 c 0.448533,0.480781 2.261475,2.270271 4.896484,4.865235 2.635009,2.594964 6.048691,5.946207 9.542969,9.380859 6.988554,6.869303 14.324826,14.097699 16.36914,16.230469 a 0.78677838,0.78677838 0 0 0 0.0293,0.02734 c 0,0 10.342463,9.76218 13.978516,14.224609 0.169437,0.20788 0.2033,0.379415 0.179687,0.587891 -0.02361,0.208475 -0.13515,0.454247 -0.320312,0.662109 -0.370324,0.415723 -0.919929,0.619663 -1.419922,0.388672 A 0.78677838,0.78677838 0 0 0 61.6875,97.505859 L 46.369141,91.916016 a 0.78677838,0.78677838 0 0 0 -0.0332,-0.01172 c -7.169044,-2.261724 -14.097807,-0.231184 -18.705079,6.181641 -1.815737,2.523162 -0.812784,6.091282 2.072266,7.044922 l -0.03516,-0.0117 c 0,0 13.522866,5.18936 26.65625,10.02734 a 0.78677838,0.78677838 0 0 0 0.05664,0.0234 c 0,0 0.696387,0.26148 2.228516,0.82227 3.61168,1.3206 7.122756,2.59159 10.257813,3.69336 1.094446,0.38454 2.312162,0.82042 3.58789,1.27539 0.02246,0.0106 0.375195,0.17676 1.076172,0.49804 0.765465,0.36105 1.891888,0.80227 3.390625,1.2129 a 0.78677838,0.78677838 0 0 0 0.02344,0.008 c 1.457507,0.34939 3.352744,0.79647 5.583985,0.82031 2.200705,0.0923 4.713285,-0.0718 7.371094,-0.66602 l 0.0098,-0.002 c 2.659186,-0.56331 5.463395,-1.49151 8.25586,-2.81641 2.785834,-1.32175 5.576054,-2.97489 8.273434,-4.92187 a 0.78677838,0.78677838 0 0 0 0.002,-0.002 c 2.68181,-1.95317 5.30267,-4.17145 7.7539,-6.63282 1.22055,-1.22058 2.42679,-2.49599 3.57617,-3.86914 a 0.78677838,0.78677838 0 0 0 0.004,-0.006 l 1.58984,-1.92382 0.0117,-0.0156 c 0.59967,-0.69415 1.14417,-1.4215 1.67774,-2.12305 a 0.78677838,0.78677838 0 0 0 0.008,-0.0117 c 2.14427,-2.936935 4.01392,-6.178609 5.30469,-9.671879 a 0.78677838,0.78677838 0 0 0 0,-0.002 c 1.27939,-3.490187 1.96762,-7.187447 1.92773,-10.771485 v -0.0039 c -5.3e-4,-3.581734 -0.71018,-6.963771 -1.73242,-9.949219 v -0.002 c -1.02938,-3.015405 -2.49197,-5.579584 -3.84961,-7.822266 v -0.002 C 117.72154,54.035329 104.79297,40.794922 104.79297,40.794922 a 0.78677838,0.78677838 0 0 0 -0.002,0 c -0.47243,-0.483946 -2.63204,-2.55441 -5.726567,-5.50586 -3.094522,-2.951449 -7.078437,-6.738 -11.048828,-10.503906 C 84.045234,21.01925 80.088522,17.27551 77.048828,14.410156 75.528981,12.97748 74.238293,11.763657 73.289062,10.876953 72.339832,9.9902488 71.793078,9.47885 71.548828,9.2773438 69.377496,7.4926336 67.429027,6.6869453 65.75,6.5078125 Z"
       transform="matrix(0.98776332,0,0,0.98776332,-2.4750745,-1.1365475)" />
    <path
       d="m 1.9882802,76.337937 c 0,0 2.4200202,4.810407 8.3959888,8.524397 5.975968,3.71399 12.890311,4.612855 12.890311,4.612855"
       style="fill:none;stroke:#444444;stroke-width:3.95105338;stroke-linecap:round;stroke-miterlimit:10"
       id="path10"
       inkscape:connector-curvature="0" />
    <path
       d="m 107.90614,35.118574 c 0,0 0.38523,-5.788293 -4.03995,-12.198872 -4.425176,-6.410584 -11.043196,-10.39127 -11.043196,-10.39127"
       style="fill:none;stroke:#444444;stroke-width:3.95105338;stroke-linecap:round;stroke-miterlimit:10"
       id="path12"
       inkscape:connector-curvature="0" />
    <path
       d="m 117.61585,30.989723 c 0,0 0.22719,-5.373427 -3.1806,-11.537071 -3.40778,-6.163643 -9.0084,-10.3122486 -9.0084,-10.3122486"
       style="fill:none;stroke:#444444;stroke-width:3.95105338;stroke-linecap:round;stroke-miterlimit:10"
       id="path14"
       inkscape:connector-curvature="0" />
  </g>
  <g
     inkscape:label="phone difference"
     id="g4511"
     inkscape:groupmode="layer"
     style="display:none"
     sodipodi:insensitive="true">
    <path
       style="fill:#000000;stroke-width:5.39642477"
       d="m 14.439453,7.7753906 c -5.9360671,0 -10.7929686,4.8569044 -10.7929686,10.7929684 v 97.136721 c 0,5.93606 4.8569015,10.79101 10.7929686,10.79101 h 53.964844 c 2.494856,0 4.793833,-0.86345 6.626953,-2.29882 -0.918895,-0.16686 -1.733823,-0.3556 -2.376953,-0.50977 a 3.7505273,3.7505273 0 0 1 -0.158203,-0.041 c -0.0048,-0.001 -0.0089,-0.003 -0.01367,-0.004 -7.67e-4,-2.1e-4 -0.0049,-0.002 -0.0059,-0.002 -1.658347,-0.45681 -2.954363,-0.95668 -3.919921,-1.4121 -0.549848,-0.25227 -0.779167,-0.36154 -0.882813,-0.41016 -1.199624,-0.42795 -2.35001,-0.83792 -3.367187,-1.19531 a 3.7505273,3.7505273 0 0 0 -0.002,0 C 61.18308,119.52591 57.70366,118.266 54.128821,116.95886 a 3.7505273,3.7505273 0 0 0 0,-0.002 c -1.508981,-0.55232 -2.198659,-0.80984 -2.210937,-0.81445 -0.0046,-0.002 -0.0091,-0.004 -0.01367,-0.006 -9e-6,0 -0.0059,-0.002 -0.0059,-0.002 -0.01186,-0.004 -0.02334,-0.0111 -0.03516,-0.0156 -0.01042,-0.004 -0.01106,-0.004 -0.02148,-0.008 -12.995533,-4.78753 -26.355469,-9.91406 -26.355469,-9.91406 a 3.7505273,3.7505273 0 0 1 -0.685547,-0.35352 c -0.539589,-0.25794 -1.032228,-0.57424 -1.482422,-0.93164 H 14.439453 V 53.365234 c -0.568685,-0.566399 -1.108921,-1.106246 -1.390625,-1.408203 a 3.7505273,3.7505273 0 0 1 -0.0039,-0.0059 3.7505273,3.7505273 0 0 1 -0.425781,-0.558594 c -1.681437,-1.9188 -3.1068987,-4.103322 -3.7832035,-6.667969 -0.754018,-2.85934 -0.4405258,-6.281929 1.5820315,-9.035156 1.047729,-1.426318 2.414666,-2.656143 4.021484,-3.505859 v -2.822266 h 0.07813 c -2.846405,-4.50471 -3.134633,-10.380502 0.728516,-14.490234 3.504324,-3.731067 8.901799,-4.212337 13.466797,-2.126953 0.299289,-1.749621 0.996645,-3.4737939 2.203125,-4.9511722 z m 34.689453,0.035156 1.988282,1.8808593 C 51.313535,9.0579518 51.587612,8.4312698 51.904297,7.8125 Z"
       id="path4497"
       inkscape:connector-curvature="0" />
  </g>
  <g
     style="display:none"
     inkscape:label="phone difference bigger offset"
     id="g4514"
     inkscape:groupmode="layer"
     sodipodi:insensitive="true">
    <path
       style="fill:#000000;stroke-width:5.28538561"
       d="m 12.570888,7.0962707 c -5.8139241,0 -10.5708881,4.7569663 -10.5708881,10.5708873 v 95.137992 c 0,5.81392 4.756964,10.56897 10.5708881,10.56897 H 65.42533 c 0.231065,0 0.457336,-0.0196 0.68483,-0.0345 -0.235537,-0.0833 -0.518803,-0.18491 -0.738394,-0.26207 a 9.4583828,9.4583828 0 0 0 -0.0019,0 C 62.27428,121.98966 58.847225,120.7503 55.3346,119.46593 a 9.4583828,9.4583828 0 0 0 -0.0019,-0.002 c -1.471367,-0.53854 -2.149318,-0.79165 -2.180748,-0.80343 -0.01666,-0.006 -0.0331,-0.0148 -0.04974,-0.021 -12.788209,-4.71084 -25.906902,-9.74641 -25.906902,-9.74641 a 9.4583828,9.4583828 0 0 1 -1.700601,-0.87231 c -2.45374,-1.34966 -4.303812,-3.4087 -5.501605,-5.78663 H 12.570888 V 53.978523 A 9.4583828,9.4583828 0 0 1 11.799975,52.932147 C 9.9286456,50.675078 8.2452294,48.095051 7.3657873,44.760081 6.276001,40.627457 6.744564,35.234845 9.8468661,31.011805 10.491699,30.133966 11.262178,29.291762 12.10987,28.498206 9.6327119,22.53432 10.009476,15.419291 15.019447,10.086191 c 0,0 0.0019,-0.002 0.0019,-0.002 0,0 0.0019,-0.002 0.0019,-0.002 1.159099,-1.2335802 2.464628,-2.2212955 3.867958,-2.9803556 z M 71.09336,39.269953 c 0.263492,0.244552 0.796342,0.751424 1.040638,0.97751 a 9.4583828,9.4583828 0 0 1 0.01148,0.0096 C 71.78839,39.928805 71.648994,39.612195 71.09336,39.269953 Z m 0.841692,2.530815 c 0.332371,0.391801 0.552839,0.522232 0.552839,0.522232 -0.008,-0.0077 -0.514805,-0.486332 -0.552839,-0.522232 z"
       id="path4499"
       inkscape:connector-curvature="0" />
  </g>
  <g
     inkscape:groupmode="layer"
     id="layer3"
     inkscape:label="hand"
     style="display:none"
     sodipodi:insensitive="true">
    <path
       transform="matrix(0.96743869,0,0,0.96743869,1.8809423,-1.6322916)"
       d="m 65.75,6.5078125 c -0.559676,-0.059711 -1.089795,-0.04855 -1.587891,0.017578 -1.992476,0.2645258 -3.391489,1.3855954 -4.222656,2.1953125 -2.007695,1.9484869 -2.571823,4.0569389 -2.378906,5.8378909 0.192916,1.780951 1.063635,3.21634 1.720703,4.11914 a 0.78677838,0.78677838 0 0 0 0.002,0.002 c 0.236668,0.322728 0.586084,0.655879 1.210938,1.28125 0.624853,0.62537 1.462022,1.448222 2.443359,2.40039 1.962674,1.904336 4.494532,4.327074 6.998047,6.712891 5.00703,4.771633 9.904297,9.392578 9.904297,9.392578 a 0.78677838,0.78677838 0 0 0 0.01172,0.01172 c 0,0 0.191746,0.189338 0.291016,0.419922 0.09927,0.230583 0.179452,0.328224 -0.138672,0.667968 a 0.78677838,0.78677838 0 0 0 -0.002,0 c -0.304137,0.326086 -0.424386,0.272922 -0.626953,0.220703 -0.200351,-0.05165 -0.352067,-0.169268 -0.355469,-0.171875 l -30.15039,-28.523437 0.01953,0.02148 c -3.626162,-3.6913022 -8.93076,-3.2043675 -11.919922,0.06055 -1.642641,1.791471 -2.107167,3.930349 -1.691406,5.931641 0.41576,2.001291 1.638859,3.874169 3.25,5.458984 1.420094,1.398695 25.857834,24.850833 28.423828,27.253906 0.450812,0.420759 0.378172,0.547521 0.351562,0.658203 -0.02661,0.110683 -0.116093,0.205938 -0.121093,0.210938 a 0.78677838,0.78677838 0 0 0 -0.02344,0.02539 c -0.254813,0.277391 -0.302483,0.245359 -0.455078,0.214843 -0.152285,-0.03045 -0.428489,-0.19177 -0.689453,-0.43164 h -0.002 C 61.327127,46.161086 53.257473,38.56797 46.220703,31.933594 39.183563,25.298869 33.246426,19.683512 32.607422,19.101562 a 0.78677838,0.78677838 0 0 0 -0.002,-0.002 c -3.781812,-3.418587 -8.850394,-3.541076 -11.898438,-0.294921 -3.169468,3.371774 -2.298247,8.930339 1.386719,12.326171 0.679219,0.62941 9.146137,8.732479 17.363281,16.603516 8.202018,7.856547 16.187314,15.5108 16.216797,15.539063 0.248157,0.271552 0.287306,0.46101 0.28125,0.585937 -0.0061,0.126267 -0.06313,0.232353 -0.179687,0.328125 -0.233108,0.191543 -0.655234,0.313365 -1.164063,-0.171875 a 0.78677838,0.78677838 0 0 0 -0.002,-0.0039 c 0,0 -6.538409,-6.186182 -13.212891,-12.480469 -3.33724,-3.147143 -6.708333,-6.320737 -9.314453,-8.761719 C 30.778971,41.54904 29.667259,40.510125 28.845703,39.75 28.024147,38.989875 27.57726,38.569745 27.3125,38.363281 a 0.78677838,0.78677838 0 0 0 -0.002,0 c -2.13065,-1.658939 -4.281701,-2.315572 -6.246094,-2.042969 -1.964392,0.272604 -3.66721,1.461071 -4.951172,3.208985 -1.311611,1.785444 -1.523028,3.911212 -0.990234,5.931641 0.532935,2.020966 1.767681,3.97778 3.369141,5.699218 a 0.78677838,0.78677838 0 0 0 0,0.002 c 0.448533,0.480781 2.261475,2.270271 4.896484,4.865235 2.635009,2.594964 6.048691,5.946207 9.542969,9.380859 6.988554,6.869303 14.324826,14.097699 16.36914,16.230469 a 0.78677838,0.78677838 0 0 0 0.0293,0.02734 c 0,0 10.342463,9.76218 13.978516,14.224609 0.169437,0.20788 0.2033,0.379415 0.179687,0.587891 -0.02361,0.208475 -0.13515,0.454247 -0.320312,0.662109 -0.370324,0.415723 -0.919929,0.619663 -1.419922,0.388672 A 0.78677838,0.78677838 0 0 0 61.6875,97.505859 L 46.369141,91.916016 a 0.78677838,0.78677838 0 0 0 -0.0332,-0.01172 c -7.169044,-2.261724 -14.097807,-0.231184 -18.705079,6.181641 -1.815737,2.523162 -0.812784,6.091282 2.072266,7.044922 l -0.03516,-0.0117 c 0,0 13.522866,5.18936 26.65625,10.02734 a 0.78677838,0.78677838 0 0 0 0.05664,0.0234 c 0,0 0.696387,0.26148 2.228516,0.82227 3.61168,1.3206 7.122756,2.59159 10.257813,3.69336 1.094446,0.38454 2.312162,0.82042 3.58789,1.27539 0.02246,0.0106 0.375195,0.17676 1.076172,0.49804 0.765465,0.36105 1.891888,0.80227 3.390625,1.2129 a 0.78677838,0.78677838 0 0 0 0.02344,0.008 c 1.457507,0.34939 3.352744,0.79647 5.583985,0.82031 2.200705,0.0923 4.713285,-0.0718 7.371094,-0.66602 l 0.0098,-0.002 c 2.659186,-0.56331 5.463395,-1.49151 8.25586,-2.81641 2.785834,-1.32175 5.576054,-2.97489 8.273434,-4.92187 a 0.78677838,0.78677838 0 0 0 0.002,-0.002 c 2.68181,-1.95317 5.30267,-4.17145 7.7539,-6.63282 1.22055,-1.22058 2.42679,-2.49599 3.57617,-3.86914 a 0.78677838,0.78677838 0 0 0 0.004,-0.006 l 1.58984,-1.92382 0.0117,-0.0156 c 0.59967,-0.69415 1.14417,-1.4215 1.67774,-2.12305 a 0.78677838,0.78677838 0 0 0 0.008,-0.0117 c 2.14427,-2.936935 4.01392,-6.178609 5.30469,-9.671879 a 0.78677838,0.78677838 0 0 0 0,-0.002 c 1.27939,-3.490187 1.96762,-7.187447 1.92773,-10.771485 v -0.0039 c -5.3e-4,-3.581734 -0.71018,-6.963771 -1.73242,-9.949219 v -0.002 c -1.02938,-3.015405 -2.49197,-5.579584 -3.84961,-7.822266 v -0.002 C 117.72154,54.035329 104.79297,40.794922 104.79297,40.794922 a 0.78677838,0.78677838 0 0 0 -0.002,0 c -0.47243,-0.483946 -2.63204,-2.55441 -5.726567,-5.50586 -3.094522,-2.951449 -7.078437,-6.738 -11.048828,-10.503906 C 84.045234,21.01925 80.088522,17.27551 77.048828,14.410156 75.528981,12.97748 74.238293,11.763657 73.289062,10.876953 72.339832,9.9902488 71.793078,9.47885 71.548828,9.2773438 69.377496,7.4926336 67.429027,6.6869453 65.75,6.5078125 Z"
       id="path4503"
       style="display:inline;fill:#fac036"
       inkscape:original="M 64.265625 7.3046875 C 62.514375 7.5371875 61.263281 8.5301563 60.488281 9.2851562 C 56.758281 12.905156 58.687969 16.524844 59.917969 18.214844 C 60.797969 19.414844 80.378906 37.894531 80.378906 37.894531 C 80.378906 37.894531 81.608125 39.003516 80.578125 40.103516 C 79.608125 41.143516 78.507812 40.214844 78.507812 40.214844 L 48.328125 11.664062 C 44.988125 8.2640625 40.258828 8.7450781 37.548828 11.705078 C 34.568828 14.955078 36.018125 18.993906 39.078125 22.003906 C 40.408125 23.313906 64.968281 46.884141 67.488281 49.244141 C 68.688281 50.364141 67.748281 51.234141 67.738281 51.244141 C 66.948281 52.104141 66.108516 51.654219 65.478516 51.074219 C 56.098516 42.394219 33.198125 20.703594 32.078125 19.683594 C 28.538126 16.483594 24.029297 16.41375 21.279297 19.34375 C 18.459297 22.34375 19.208906 27.404692 22.628906 30.554688 C 24.128906 31.944687 56.248047 62.734375 56.248047 62.734375 C 57.718047 64.324375 55.578359 66.023984 54.068359 64.583984 C 54.068359 64.583984 27.918125 39.834375 26.828125 38.984375 C 22.808125 35.854375 19.128047 36.754141 16.748047 39.994141 C 14.418047 43.164141 15.998359 47.325 19.068359 50.625 C 20.598359 52.265 45.709141 76.75375 49.869141 81.09375 C 49.869141 81.09375 60.177969 90.804531 63.917969 95.394531 C 65.107969 96.854531 63.127969 99.034141 61.417969 98.244141 L 46.099609 92.654297 C 39.189609 90.474297 32.70953 92.364922 28.269531 98.544922 C 26.729531 100.68492 27.55922 103.59477 29.949219 104.38477 C 29.949219 104.38477 43.519453 109.59336 56.689453 114.44336 L 56.658203 114.43359 C 56.658203 114.43359 57.348906 114.6939 58.878906 115.25391 C 62.488906 116.5739 65.998906 117.84337 69.128906 118.94336 C 70.238906 119.33337 71.467812 119.77438 72.757812 120.23438 C 72.757812 120.23438 73.139375 120.41414 73.859375 120.74414 C 74.579375 121.08414 75.668906 121.51405 77.128906 121.91406 C 78.588906 122.26405 80.418594 122.69484 82.558594 122.71484 C 84.698594 122.80484 87.148281 122.64445 89.738281 122.06445 C 92.338281 121.51445 95.088125 120.60469 97.828125 119.30469 C 100.56813 118.00468 103.31852 116.37508 105.97852 114.45508 C 108.62852 112.52508 111.21867 110.33431 113.63867 107.9043 C 114.84867 106.6943 116.03797 105.43397 117.16797 104.08398 L 118.76953 102.14453 C 119.34953 101.47453 119.88773 100.75492 120.42773 100.04492 C 122.53773 97.154922 124.36891 93.974453 125.62891 90.564453 C 126.87891 87.154453 127.54781 83.544453 127.50781 80.064453 C 127.50781 76.584453 126.81836 73.285234 125.81836 70.365234 C 124.81836 67.435234 123.38906 64.923359 122.03906 62.693359 C 117.16906 54.643359 104.22852 41.34375 104.22852 41.34375 C 102.58852 39.66375 72.248828 10.874766 71.048828 9.8847656 C 68.268828 7.5997656 66.016875 7.0721875 64.265625 7.3046875 z "
       inkscape:radius="0.78669971"
       sodipodi:type="inkscape:offset" />
  </g>
  <g
     inkscape:groupmode="layer"
     id="layer2"
     inkscape:label="waves"
     style="display:none"
     sodipodi:insensitive="true">
    <path
       inkscape:connector-curvature="0"
       id="path4501"
       style="display:inline;fill:none;stroke:#444444;stroke-width:3.95105338;stroke-linecap:round;stroke-miterlimit:10"
       d="m 8.6062946,62.351208 c 0,0 0.869232,5.738905 6.5587484,11.053072 5.699395,5.314167 13.01872,7.773697 13.01872,7.773697" />
    <path
       inkscape:connector-curvature="0"
       id="path4505"
       style="display:inline;fill:none;stroke:#444444;stroke-width:3.95105338;stroke-linecap:round;stroke-miterlimit:10"
       d="m 1.9882802,76.337937 c 0,0 2.4200202,4.810407 8.3959888,8.524397 5.975968,3.71399 12.890311,4.612855 12.890311,4.612855" />
    <path
       inkscape:connector-curvature="0"
       id="path4507"
       style="display:inline;fill:none;stroke:#444444;stroke-width:3.95105338;stroke-linecap:round;stroke-miterlimit:10"
       d="m 107.90614,35.118574 c 0,0 0.38523,-5.788293 -4.03995,-12.198872 -4.425176,-6.410584 -11.043196,-10.39127 -11.043196,-10.39127" />
    <path
       inkscape:connector-curvature="0"
       id="path4509"
       style="display:inline;fill:none;stroke:#444444;stroke-width:3.95105338;stroke-linecap:round;stroke-miterlimit:10"
       d="m 117.61585,30.989723 c 0,0 0.22719,-5.373427 -3.1806,-11.537071 -3.40778,-6.163643 -9.0084,-10.3122486 -9.0084,-10.3122486" />
  </g>
  <g
     inkscape:groupmode="layer"
     id="layer4"
     inkscape:label="Final"
     style="display:none"
     sodipodi:insensitive="true">
    <path
       style="display:inline;fill:#000000;stroke-width:5.28538561"
       d="m 12.570888,7.0962754 c -5.8139241,0 -10.5708881,4.7569666 -10.5708881,10.5708876 v 95.137987 c 0,5.81392 4.756964,10.56897 10.5708881,10.56897 H 65.42533 c 0.231065,0 0.457336,-0.0196 0.68483,-0.0345 -0.235537,-0.0833 -0.518803,-0.18491 -0.738394,-0.26207 a 9.4583828,9.4583828 0 0 0 -0.0019,0 C 62.27428,121.98966 58.847225,120.7503 55.3346,119.46593 a 9.4583828,9.4583828 0 0 0 -0.0019,-0.002 c -1.471367,-0.53854 -2.149318,-0.79165 -2.180748,-0.80343 -0.01666,-0.006 -0.0331,-0.0148 -0.04974,-0.021 -12.788209,-4.71084 -25.906902,-9.74641 -25.906902,-9.74641 a 9.4583828,9.4583828 0 0 1 -1.700601,-0.87231 c -2.45374,-1.34966 -4.303812,-3.40869 -5.501605,-5.78662 H 12.570888 V 53.978528 A 9.4583828,9.4583828 0 0 1 11.799975,52.932152 C 9.9286456,50.675083 8.2452294,48.095056 7.3657873,44.760086 6.276001,40.627462 6.744564,35.23485 9.8468661,31.01181 10.491699,30.133971 11.262178,29.291767 12.10987,28.498211 9.6327119,22.534325 10.009476,15.419296 15.019447,10.086196 c 0,0 0.0019,-0.002 0.0019,-0.002 0,0 0.0019,-0.002 0.0019,-0.002 1.159099,-1.2335805 2.464628,-2.2212958 3.867958,-2.9803559 z M 71.09336,39.269958 c 0.263492,0.244552 0.796342,0.751424 1.040638,0.97751 a 9.4583828,9.4583828 0 0 1 0.01148,0.0096 C 71.78839,39.92881 71.648994,39.6122 71.09336,39.269958 Z m 0.841692,2.530815 c 0.332371,0.391801 0.552839,0.522232 0.552839,0.522232 -0.008,-0.0077 -0.514805,-0.486332 -0.552839,-0.522232 z"
       id="path4499-3"
       inkscape:connector-curvature="0" />
    <path
       transform="matrix(0.96743869,0,0,0.96743869,1.8809423,-1.6322869)"
       d="m 65.75,6.5078125 c -0.559676,-0.059711 -1.089795,-0.04855 -1.587891,0.017578 -1.992476,0.2645258 -3.391489,1.3855954 -4.222656,2.1953125 -2.007695,1.9484869 -2.571823,4.0569389 -2.378906,5.8378909 0.192916,1.780951 1.063635,3.21634 1.720703,4.11914 a 0.78677838,0.78677838 0 0 0 0.002,0.002 c 0.236668,0.322728 0.586084,0.655879 1.210938,1.28125 0.624853,0.62537 1.462022,1.448222 2.443359,2.40039 1.962674,1.904336 4.494532,4.327074 6.998047,6.712891 5.00703,4.771633 9.904297,9.392578 9.904297,9.392578 a 0.78677838,0.78677838 0 0 0 0.01172,0.01172 c 0,0 0.191746,0.189338 0.291016,0.419922 0.09927,0.230583 0.179452,0.328224 -0.138672,0.667968 a 0.78677838,0.78677838 0 0 0 -0.002,0 c -0.304137,0.326086 -0.424386,0.272922 -0.626953,0.220703 -0.200351,-0.05165 -0.352067,-0.169268 -0.355469,-0.171875 l -30.15039,-28.523437 0.01953,0.02148 c -3.626162,-3.6913022 -8.93076,-3.2043675 -11.919922,0.06055 -1.642641,1.791471 -2.107167,3.930349 -1.691406,5.931641 0.41576,2.001291 1.638859,3.874169 3.25,5.458984 1.420094,1.398695 25.857834,24.850833 28.423828,27.253906 0.450812,0.420759 0.378172,0.547521 0.351562,0.658203 -0.02661,0.110683 -0.116093,0.205938 -0.121093,0.210938 a 0.78677838,0.78677838 0 0 0 -0.02344,0.02539 c -0.254813,0.277391 -0.302483,0.245359 -0.455078,0.214843 -0.152285,-0.03045 -0.428489,-0.19177 -0.689453,-0.43164 h -0.002 C 61.327127,46.161086 53.257473,38.56797 46.220703,31.933594 39.183563,25.298869 33.246426,19.683512 32.607422,19.101562 a 0.78677838,0.78677838 0 0 0 -0.002,-0.002 c -3.781812,-3.418587 -8.850394,-3.541076 -11.898438,-0.294921 -3.169468,3.371774 -2.298247,8.930339 1.386719,12.326171 0.679219,0.62941 9.146137,8.732479 17.363281,16.603516 8.202018,7.856547 16.187314,15.5108 16.216797,15.539063 0.248157,0.271552 0.287306,0.46101 0.28125,0.585937 -0.0061,0.126267 -0.06313,0.232353 -0.179687,0.328125 -0.233108,0.191543 -0.655234,0.313365 -1.164063,-0.171875 a 0.78677838,0.78677838 0 0 0 -0.002,-0.0039 c 0,0 -6.538409,-6.186182 -13.212891,-12.480469 -3.33724,-3.147143 -6.708333,-6.320737 -9.314453,-8.761719 C 30.778971,41.54904 29.667259,40.510125 28.845703,39.75 28.024147,38.989875 27.57726,38.569745 27.3125,38.363281 a 0.78677838,0.78677838 0 0 0 -0.002,0 c -2.13065,-1.658939 -4.281701,-2.315572 -6.246094,-2.042969 -1.964392,0.272604 -3.66721,1.461071 -4.951172,3.208985 -1.311611,1.785444 -1.523028,3.911212 -0.990234,5.931641 0.532935,2.020966 1.767681,3.97778 3.369141,5.699218 a 0.78677838,0.78677838 0 0 0 0,0.002 c 0.448533,0.480781 2.261475,2.270271 4.896484,4.865235 2.635009,2.594964 6.048691,5.946207 9.542969,9.380859 6.988554,6.869303 14.324826,14.097699 16.36914,16.230469 a 0.78677838,0.78677838 0 0 0 0.0293,0.02734 c 0,0 10.342463,9.76218 13.978516,14.224609 0.169437,0.20788 0.2033,0.379415 0.179687,0.587891 -0.02361,0.208475 -0.13515,0.454247 -0.320312,0.662109 -0.370324,0.415723 -0.919929,0.619663 -1.419922,0.388672 A 0.78677838,0.78677838 0 0 0 61.6875,97.505859 L 46.369141,91.916016 a 0.78677838,0.78677838 0 0 0 -0.0332,-0.01172 c -7.169044,-2.261724 -14.097807,-0.231184 -18.705079,6.181641 -1.815737,2.523162 -0.812784,6.091282 2.072266,7.044922 l -0.03516,-0.0117 c 0,0 13.522866,5.18936 26.65625,10.02734 a 0.78677838,0.78677838 0 0 0 0.05664,0.0234 c 0,0 0.696387,0.26148 2.228516,0.82227 3.61168,1.3206 7.122756,2.59159 10.257813,3.69336 1.094446,0.38454 2.312162,0.82042 3.58789,1.27539 0.02246,0.0106 0.375195,0.17676 1.076172,0.49804 0.765465,0.36105 1.891888,0.80227 3.390625,1.2129 a 0.78677838,0.78677838 0 0 0 0.02344,0.008 c 1.457507,0.34939 3.352744,0.79647 5.583985,0.82031 2.200705,0.0923 4.713285,-0.0718 7.371094,-0.66602 l 0.0098,-0.002 c 2.659186,-0.56331 5.463395,-1.49151 8.25586,-2.81641 2.785834,-1.32175 5.576054,-2.97489 8.273434,-4.92187 a 0.78677838,0.78677838 0 0 0 0.002,-0.002 c 2.68181,-1.95317 5.30267,-4.17145 7.7539,-6.63282 1.22055,-1.22058 2.42679,-2.49599 3.57617,-3.86914 a 0.78677838,0.78677838 0 0 0 0.004,-0.006 l 1.58984,-1.92382 0.0117,-0.0156 c 0.59967,-0.69415 1.14417,-1.4215 1.67774,-2.12305 a 0.78677838,0.78677838 0 0 0 0.008,-0.0117 c 2.14427,-2.936935 4.01392,-6.178609 5.30469,-9.671879 a 0.78677838,0.78677838 0 0 0 0,-0.002 c 1.27939,-3.490187 1.96762,-7.187447 1.92773,-10.771485 v -0.0039 c -5.3e-4,-3.581734 -0.71018,-6.963771 -1.73242,-9.949219 v -0.002 c -1.02938,-3.015405 -2.49197,-5.579584 -3.84961,-7.822266 v -0.002 C 117.72154,54.035329 104.79297,40.794922 104.79297,40.794922 a 0.78677838,0.78677838 0 0 0 -0.002,0 c -0.47243,-0.483946 -2.63204,-2.55441 -5.726567,-5.50586 -3.094522,-2.951449 -7.078437,-6.738 -11.048828,-10.503906 C 84.045234,21.01925 80.088522,17.27551 77.048828,14.410156 75.528981,12.97748 74.238293,11.763657 73.289062,10.876953 72.339832,9.9902488 71.793078,9.47885 71.548828,9.2773438 69.377496,7.4926336 67.429027,6.6869453 65.75,6.5078125 Z"
       id="path4503-6"
       style="display:inline;fill:#fac036"
       inkscape:original="M 64.265625 7.3046875 C 62.514375 7.5371875 61.263281 8.5301563 60.488281 9.2851562 C 56.758281 12.905156 58.687969 16.524844 59.917969 18.214844 C 60.797969 19.414844 80.378906 37.894531 80.378906 37.894531 C 80.378906 37.894531 81.608125 39.003516 80.578125 40.103516 C 79.608125 41.143516 78.507812 40.214844 78.507812 40.214844 L 48.328125 11.664062 C 44.988125 8.2640625 40.258828 8.7450781 37.548828 11.705078 C 34.568828 14.955078 36.018125 18.993906 39.078125 22.003906 C 40.408125 23.313906 64.968281 46.884141 67.488281 49.244141 C 68.688281 50.364141 67.748281 51.234141 67.738281 51.244141 C 66.948281 52.104141 66.108516 51.654219 65.478516 51.074219 C 56.098516 42.394219 33.198125 20.703594 32.078125 19.683594 C 28.538126 16.483594 24.029297 16.41375 21.279297 19.34375 C 18.459297 22.34375 19.208906 27.404692 22.628906 30.554688 C 24.128906 31.944687 56.248047 62.734375 56.248047 62.734375 C 57.718047 64.324375 55.578359 66.023984 54.068359 64.583984 C 54.068359 64.583984 27.918125 39.834375 26.828125 38.984375 C 22.808125 35.854375 19.128047 36.754141 16.748047 39.994141 C 14.418047 43.164141 15.998359 47.325 19.068359 50.625 C 20.598359 52.265 45.709141 76.75375 49.869141 81.09375 C 49.869141 81.09375 60.177969 90.804531 63.917969 95.394531 C 65.107969 96.854531 63.127969 99.034141 61.417969 98.244141 L 46.099609 92.654297 C 39.189609 90.474297 32.70953 92.364922 28.269531 98.544922 C 26.729531 100.68492 27.55922 103.59477 29.949219 104.38477 C 29.949219 104.38477 43.519453 109.59336 56.689453 114.44336 L 56.658203 114.43359 C 56.658203 114.43359 57.348906 114.6939 58.878906 115.25391 C 62.488906 116.5739 65.998906 117.84337 69.128906 118.94336 C 70.238906 119.33337 71.467812 119.77438 72.757812 120.23438 C 72.757812 120.23438 73.139375 120.41414 73.859375 120.74414 C 74.579375 121.08414 75.668906 121.51405 77.128906 121.91406 C 78.588906 122.26405 80.418594 122.69484 82.558594 122.71484 C 84.698594 122.80484 87.148281 122.64445 89.738281 122.06445 C 92.338281 121.51445 95.088125 120.60469 97.828125 119.30469 C 100.56813 118.00468 103.31852 116.37508 105.97852 114.45508 C 108.62852 112.52508 111.21867 110.33431 113.63867 107.9043 C 114.84867 106.6943 116.03797 105.43397 117.16797 104.08398 L 118.76953 102.14453 C 119.34953 101.47453 119.88773 100.75492 120.42773 100.04492 C 122.53773 97.154922 124.36891 93.974453 125.62891 90.564453 C 126.87891 87.154453 127.54781 83.544453 127.50781 80.064453 C 127.50781 76.584453 126.81836 73.285234 125.81836 70.365234 C 124.81836 67.435234 123.38906 64.923359 122.03906 62.693359 C 117.16906 54.643359 104.22852 41.34375 104.22852 41.34375 C 102.58852 39.66375 72.248828 10.874766 71.048828 9.8847656 C 68.268828 7.5997656 66.016875 7.0721875 64.265625 7.3046875 z "
       inkscape:radius="0.78669971"
       sodipodi:type="inkscape:offset" />
  </g>
  <g
     inkscape:label="Final white"
     id="g4524"
     inkscape:groupmode="layer">
    <path
       inkscape:connector-curvature="0"
       id="path4520"
       d="m 12.570888,7.0962754 c -5.8139241,0 -10.5708881,4.7569666 -10.5708881,10.5708876 v 95.137987 c 0,5.81392 4.756964,10.56897 10.5708881,10.56897 H 65.42533 c 0.231065,0 0.457336,-0.0196 0.68483,-0.0345 -0.235537,-0.0833 -0.518803,-0.18491 -0.738394,-0.26207 a 9.4583828,9.4583828 0 0 0 -0.0019,0 C 62.27428,121.98966 58.847225,120.7503 55.3346,119.46593 a 9.4583828,9.4583828 0 0 0 -0.0019,-0.002 c -1.471367,-0.53854 -2.149318,-0.79165 -2.180748,-0.80343 -0.01666,-0.006 -0.0331,-0.0148 -0.04974,-0.021 -12.788209,-4.71084 -25.906902,-9.74641 -25.906902,-9.74641 a 9.4583828,9.4583828 0 0 1 -1.700601,-0.87231 c -2.45374,-1.34966 -4.303812,-3.40869 -5.501605,-5.78662 H 12.570888 V 53.978528 A 9.4583828,9.4583828 0 0 1 11.799975,52.932152 C 9.9286456,50.675083 8.2452294,48.095056 7.3657873,44.760086 6.276001,40.627462 6.744564,35.23485 9.8468661,31.01181 10.491699,30.133971 11.262178,29.291767 12.10987,28.498211 9.6327119,22.534325 10.009476,15.419296 15.019447,10.086196 c 0,0 0.0019,-0.002 0.0019,-0.002 0,0 0.0019,-0.002 0.0019,-0.002 1.159099,-1.2335805 2.464628,-2.2212958 3.867958,-2.9803559 z M 71.09336,39.269958 c 0.263492,0.244552 0.796342,0.751424 1.040638,0.97751 a 9.4583828,9.4583828 0 0 1 0.01148,0.0096 C 71.78839,39.92881 71.648994,39.6122 71.09336,39.269958 Z m 0.841692,2.530815 c 0.332371,0.391801 0.552839,0.522232 0.552839,0.522232 -0.008,-0.0077 -0.514805,-0.486332 -0.552839,-0.522232 z"
       style="display:inline;fill:#ffffff;stroke-width:5.28538561" />
    <path
       sodipodi:type="inkscape:offset"
       inkscape:radius="0.78669971"
       inkscape:original="M 64.265625 7.3046875 C 62.514375 7.5371875 61.263281 8.5301563 60.488281 9.2851562 C 56.758281 12.905156 58.687969 16.524844 59.917969 18.214844 C 60.797969 19.414844 80.378906 37.894531 80.378906 37.894531 C 80.378906 37.894531 81.608125 39.003516 80.578125 40.103516 C 79.608125 41.143516 78.507812 40.214844 78.507812 40.214844 L 48.328125 11.664062 C 44.988125 8.2640625 40.258828 8.7450781 37.548828 11.705078 C 34.568828 14.955078 36.018125 18.993906 39.078125 22.003906 C 40.408125 23.313906 64.968281 46.884141 67.488281 49.244141 C 68.688281 50.364141 67.748281 51.234141 67.738281 51.244141 C 66.948281 52.104141 66.108516 51.654219 65.478516 51.074219 C 56.098516 42.394219 33.198125 20.703594 32.078125 19.683594 C 28.538126 16.483594 24.029297 16.41375 21.279297 19.34375 C 18.459297 22.34375 19.208906 27.404692 22.628906 30.554688 C 24.128906 31.944687 56.248047 62.734375 56.248047 62.734375 C 57.718047 64.324375 55.578359 66.023984 54.068359 64.583984 C 54.068359 64.583984 27.918125 39.834375 26.828125 38.984375 C 22.808125 35.854375 19.128047 36.754141 16.748047 39.994141 C 14.418047 43.164141 15.998359 47.325 19.068359 50.625 C 20.598359 52.265 45.709141 76.75375 49.869141 81.09375 C 49.869141 81.09375 60.177969 90.804531 63.917969 95.394531 C 65.107969 96.854531 63.127969 99.034141 61.417969 98.244141 L 46.099609 92.654297 C 39.189609 90.474297 32.70953 92.364922 28.269531 98.544922 C 26.729531 100.68492 27.55922 103.59477 29.949219 104.38477 C 29.949219 104.38477 43.519453 109.59336 56.689453 114.44336 L 56.658203 114.43359 C 56.658203 114.43359 57.348906 114.6939 58.878906 115.25391 C 62.488906 116.5739 65.998906 117.84337 69.128906 118.94336 C 70.238906 119.33337 71.467812 119.77438 72.757812 120.23438 C 72.757812 120.23438 73.139375 120.41414 73.859375 120.74414 C 74.579375 121.08414 75.668906 121.51405 77.128906 121.91406 C 78.588906 122.26405 80.418594 122.69484 82.558594 122.71484 C 84.698594 122.80484 87.148281 122.64445 89.738281 122.06445 C 92.338281 121.51445 95.088125 120.60469 97.828125 119.30469 C 100.56813 118.00468 103.31852 116.37508 105.97852 114.45508 C 108.62852 112.52508 111.21867 110.33431 113.63867 107.9043 C 114.84867 106.6943 116.03797 105.43397 117.16797 104.08398 L 118.76953 102.14453 C 119.34953 101.47453 119.88773 100.75492 120.42773 100.04492 C 122.53773 97.154922 124.36891 93.974453 125.62891 90.564453 C 126.87891 87.154453 127.54781 83.544453 127.50781 80.064453 C 127.50781 76.584453 126.81836 73.285234 125.81836 70.365234 C 124.81836 67.435234 123.38906 64.923359 122.03906 62.693359 C 117.16906 54.643359 104.22852 41.34375 104.22852 41.34375 C 102.58852 39.66375 72.248828 10.874766 71.048828 9.8847656 C 68.268828 7.5997656 66.016875 7.0721875 64.265625 7.3046875 z "
       style="display:inline;fill:#ffffff"
       id="path4522"
       d="m 65.75,6.5078125 c -0.559676,-0.059711 -1.089795,-0.04855 -1.587891,0.017578 -1.992476,0.2645258 -3.391489,1.3855954 -4.222656,2.1953125 -2.007695,1.9484869 -2.571823,4.0569389 -2.378906,5.8378909 0.192916,1.780951 1.063635,3.21634 1.720703,4.11914 a 0.78677838,0.78677838 0 0 0 0.002,0.002 c 0.236668,0.322728 0.586084,0.655879 1.210938,1.28125 0.624853,0.62537 1.462022,1.448222 2.443359,2.40039 1.962674,1.904336 4.494532,4.327074 6.998047,6.712891 5.00703,4.771633 9.904297,9.392578 9.904297,9.392578 a 0.78677838,0.78677838 0 0 0 0.01172,0.01172 c 0,0 0.191746,0.189338 0.291016,0.419922 0.09927,0.230583 0.179452,0.328224 -0.138672,0.667968 a 0.78677838,0.78677838 0 0 0 -0.002,0 c -0.304137,0.326086 -0.424386,0.272922 -0.626953,0.220703 -0.200351,-0.05165 -0.352067,-0.169268 -0.355469,-0.171875 l -30.15039,-28.523437 0.01953,0.02148 c -3.626162,-3.6913022 -8.93076,-3.2043675 -11.919922,0.06055 -1.642641,1.791471 -2.107167,3.930349 -1.691406,5.931641 0.41576,2.001291 1.638859,3.874169 3.25,5.458984 1.420094,1.398695 25.857834,24.850833 28.423828,27.253906 0.450812,0.420759 0.378172,0.547521 0.351562,0.658203 -0.02661,0.110683 -0.116093,0.205938 -0.121093,0.210938 a 0.78677838,0.78677838 0 0 0 -0.02344,0.02539 c -0.254813,0.277391 -0.302483,0.245359 -0.455078,0.214843 -0.152285,-0.03045 -0.428489,-0.19177 -0.689453,-0.43164 h -0.002 C 61.327127,46.161086 53.257473,38.56797 46.220703,31.933594 39.183563,25.298869 33.246426,19.683512 32.607422,19.101562 a 0.78677838,0.78677838 0 0 0 -0.002,-0.002 c -3.781812,-3.418587 -8.850394,-3.541076 -11.898438,-0.294921 -3.169468,3.371774 -2.298247,8.930339 1.386719,12.326171 0.679219,0.62941 9.146137,8.732479 17.363281,16.603516 8.202018,7.856547 16.187314,15.5108 16.216797,15.539063 0.248157,0.271552 0.287306,0.46101 0.28125,0.585937 -0.0061,0.126267 -0.06313,0.232353 -0.179687,0.328125 -0.233108,0.191543 -0.655234,0.313365 -1.164063,-0.171875 a 0.78677838,0.78677838 0 0 0 -0.002,-0.0039 c 0,0 -6.538409,-6.186182 -13.212891,-12.480469 -3.33724,-3.147143 -6.708333,-6.320737 -9.314453,-8.761719 C 30.778971,41.54904 29.667259,40.510125 28.845703,39.75 28.024147,38.989875 27.57726,38.569745 27.3125,38.363281 a 0.78677838,0.78677838 0 0 0 -0.002,0 c -2.13065,-1.658939 -4.281701,-2.315572 -6.246094,-2.042969 -1.964392,0.272604 -3.66721,1.461071 -4.951172,3.208985 -1.311611,1.785444 -1.523028,3.911212 -0.990234,5.931641 0.532935,2.020966 1.767681,3.97778 3.369141,5.699218 a 0.78677838,0.78677838 0 0 0 0,0.002 c 0.448533,0.480781 2.261475,2.270271 4.896484,4.865235 2.635009,2.594964 6.048691,5.946207 9.542969,9.380859 6.988554,6.869303 14.324826,14.097699 16.36914,16.230469 a 0.78677838,0.78677838 0 0 0 0.0293,0.02734 c 0,0 10.342463,9.76218 13.978516,14.224609 0.169437,0.20788 0.2033,0.379415 0.179687,0.587891 -0.02361,0.208475 -0.13515,0.454247 -0.320312,0.662109 -0.370324,0.415723 -0.919929,0.619663 -1.419922,0.388672 A 0.78677838,0.78677838 0 0 0 61.6875,97.505859 L 46.369141,91.916016 a 0.78677838,0.78677838 0 0 0 -0.0332,-0.01172 c -7.169044,-2.261724 -14.097807,-0.231184 -18.705079,6.181641 -1.815737,2.523162 -0.812784,6.091282 2.072266,7.044922 l -0.03516,-0.0117 c 0,0 13.522866,5.18936 26.65625,10.02734 a 0.78677838,0.78677838 0 0 0 0.05664,0.0234 c 0,0 0.696387,0.26148 2.228516,0.82227 3.61168,1.3206 7.122756,2.59159 10.257813,3.69336 1.094446,0.38454 2.312162,0.82042 3.58789,1.27539 0.02246,0.0106 0.375195,0.17676 1.076172,0.49804 0.765465,0.36105 1.891888,0.80227 3.390625,1.2129 a 0.78677838,0.78677838 0 0 0 0.02344,0.008 c 1.457507,0.34939 3.352744,0.79647 5.583985,0.82031 2.200705,0.0923 4.713285,-0.0718 7.371094,-0.66602 l 0.0098,-0.002 c 2.659186,-0.56331 5.463395,-1.49151 8.25586,-2.81641 2.785834,-1.32175 5.576054,-2.97489 8.273434,-4.92187 a 0.78677838,0.78677838 0 0 0 0.002,-0.002 c 2.68181,-1.95317 5.30267,-4.17145 7.7539,-6.63282 1.22055,-1.22058 2.42679,-2.49599 3.57617,-3.86914 a 0.78677838,0.78677838 0 0 0 0.004,-0.006 l 1.58984,-1.92382 0.0117,-0.0156 c 0.59967,-0.69415 1.14417,-1.4215 1.67774,-2.12305 a 0.78677838,0.78677838 0 0 0 0.008,-0.0117 c 2.14427,-2.936935 4.01392,-6.178609 5.30469,-9.671879 a 0.78677838,0.78677838 0 0 0 0,-0.002 c 1.27939,-3.490187 1.96762,-7.187447 1.92773,-10.771485 v -0.0039 c -5.3e-4,-3.581734 -0.71018,-6.963771 -1.73242,-9.949219 v -0.002 c -1.02938,-3.015405 -2.49197,-5.579584 -3.84961,-7.822266 v -0.002 C 117.72154,54.035329 104.79297,40.794922 104.79297,40.794922 a 0.78677838,0.78677838 0 0 0 -0.002,0 c -0.47243,-0.483946 -2.63204,-2.55441 -5.726567,-5.50586 -3.094522,-2.951449 -7.078437,-6.738 -11.048828,-10.503906 C 84.045234,21.01925 80.088522,17.27551 77.048828,14.410156 75.528981,12.97748 74.238293,11.763657 73.289062,10.876953 72.339832,9.9902488 71.793078,9.47885 71.548828,9.2773438 69.377496,7.4926336 67.429027,6.6869453 65.75,6.5078125 Z"
       transform="matrix(0.96743869,0,0,0.96743869,1.8809423,-1.6322869)" />
  </g>
</svg>
